{
    "info": {
      "count": 126,
      "pages": 7,
      "next": "https://link.com/api/?page=2",
      "prev": null
    },
    "results": [
      { }
    ]
}